{
  "required": true,
  "minVersion": "0.8",
  "package": "io.gitlab.jfronny.libjf.data.manipulation.impl.mixin",
  "compatibilityLevel": "JAVA_16",
  "mixins": [
    "RecipeManagerMixin"
  ],
  "client": [
  ],
  "injectors": {
    "defaultRequire": 1
  }
}
