{
  "schemaVersion": 1,
  "id": "libjf-config-network-v0",
  "name": "LibJF Config: Network",
  "version": "${version}",
  "authors": ["JFronny"],
  "contact": {
    "email": "projects.contact@frohnmeyer-wds.de",
    "homepage": "https://jfronny.gitlab.io",
    "issues": "https://git.frohnmeyer-wds.de/JfMods/LibJF/issues",
    "sources": "https://git.frohnmeyer-wds.de/JfMods/LibJF"
  },
  "license": "MIT",
  "environment": "*",
  "entrypoints": {
    "server": ["io.gitlab.jfronny.libjf.config.impl.network.server.JfConfigNetworkServer::initialize"],
    "client": ["io.gitlab.jfronny.libjf.config.impl.network.client.JfConfigNetworkClient::initialize"],
    "modmenu": ["io.gitlab.jfronny.libjf.config.impl.network.client.JfConfigNetworkModMenu"]
  },
  "depends": {
    "fabricloader": ">=0.12.0",
    "minecraft": "*",
    "fabric-networking-api-v1": "*",
    "fabric-command-api-v2": "*",
    "libjf-base": ">=${version}",
    "libjf-config-core-v2": ">=${version}"
  },
  "custom": {
    "modmenu": {
      "badges": ["library"],
      "parent": "libjf"
    }
  }
}
