{
  "required": true,
  "minVersion": "0.8",
  "package": "io.gitlab.jfronny.libjf.data.mixin",
  "compatibilityLevel": "JAVA_16",
  "mixins": [
    "EntityMixin",
    "ShulkerBoxBlockEntityMixin",
    "ShulkerBoxSlotMixin"
  ],
  "client": [
  ],
  "injectors": {
    "defaultRequire": 1
  }
}
