{
  "required": true,
  "minVersion": "0.8",
  "package": "io.gitlab.jfronny.libjf.mainhttp.impl.mixin",
  "compatibilityLevel": "JAVA_16",
  "plugin": "io.gitlab.jfronny.libjf.mainhttp.impl.mixin.JfMainHTTPMixinPlugin",
  "server": [
    "ServerNetworkIo$1Mixin",
    "ServerNetworkIoMixin"
  ],
  "injectors": {
    "defaultRequire": 1
  }
}
