{
  "schemaVersion": 1,
  "id": "libjf-config-core-v2",
  "provides": ["libjf-config-core-v1"],
  "name": "LibJF Config",
  "version": "${version}",
  "authors": ["JFronny"],
  "contact": {
    "email": "projects.contact@frohnmeyer-wds.de",
    "homepage": "https://jfronny.gitlab.io",
    "issues": "https://git.frohnmeyer-wds.de/JfMods/LibJF/issues",
    "sources": "https://git.frohnmeyer-wds.de/JfMods/LibJF"
  },
  "license": "MIT",
  "environment": "*",
  "entrypoints": {
    "preLaunch": ["io.gitlab.jfronny.libjf.config.impl.entrypoint.JfConfigSafe"],
    "libjf:coprocess": ["io.gitlab.jfronny.libjf.config.impl.watch.ToggleableConfigWatchService"],
    "libjf:config_screen": ["io.gitlab.jfronny.libjf.config.impl.ui.PlaceholderScreenFactory"],
    "modmenu": ["io.gitlab.jfronny.libjf.config.impl.ui.ModMenuAdapter"]
  },
  "depends": {
    "fabricloader": ">=0.12.0",
    "minecraft": "*",
    "libjf-base": ">=${version}"
  },
  "custom": {
    "modmenu": {
      "badges": ["library"],
      "parent": "libjf"
    }
  }
}
