{
  "schemaVersion": 1,
  "id": "libjf-resource-pack-entry-widgets-v0",
  "name": "LibJF Resource Pack Entry Widgets",
  "version": "${version}",
  "authors": [
    "JFronny"
  ],
  "contact": {
    "email": "projects.contact@frohnmeyer-wds.de",
    "homepage": "https://jfronny.gitlab.io",
    "issues": "https://git.frohnmeyer-wds.de/JfMods/LibJF/issues",
    "sources": "https://git.frohnmeyer-wds.de/JfMods/LibJF"
  },
  "license": "MIT",
  "environment": "*",
  "mixins": [
    {
      "config": "libjf-resource-pack-entry-widgets-v0.client.mixins.json",
      "environment": "client"
    }
  ],
  "depends": {
    "fabricloader": ">=0.12.0",
    "minecraft": "*"
  },
  "custom": {
    "modmenu": {
      "parent": "libjf",
      "badges": ["library"]
    }
  }
}
