{
  "schemaVersion": 1,
  "id": "libjf-web-v1-testmod",
  "name": "LibJF Web",
  "version": "1.0",
  "environment": "*",
  "entrypoints": {
    "libjf:web": ["io.gitlab.jfronny.libjf.web.test.WebTest"]
  },
  "custom": {
    "libjf": {
      "web": true
    },
    "modmenu": {
      "parent": "libjf-testmod"
    }
  }
}