{
  "schemaVersion": 1,
  "id": "libjf-config-ui-tiny",
  "name": "LibJF Config UI: Tiny",
  "version": "${version}",
  "authors": ["JFronny"],
  "contact": {
    "email": "projects.contact@frohnmeyer-wds.de",
    "homepage": "https://jfronny.gitlab.io",
    "issues": "https://git.frohnmeyer-wds.de/JfMods/LibJF/issues",
    "sources": "https://git.frohnmeyer-wds.de/JfMods/LibJF"
  },
  "license": "MIT",
  "environment": "client",
  "entrypoints": {
    "libjf:config_screen": ["io.gitlab.jfronny.libjf.config.impl.ui.tiny.TinyConfigScreenFactory"]
  },
  "depends": {
    "fabricloader": ">=0.12.0",
    "minecraft": "*",
    "fabric-resource-loader-v0": "*",
    "libjf-base": ">=${version}",
    "libjf-config-core-v2": ">=${version}"
  },
  "custom": {
    "modmenu": {
      "badges": ["library"],
      "parent": "libjf"
    }
  }
}
