{
  "required": true,
  "minVersion": "0.8",
  "package": "io.gitlab.jfronny.libjf.data.mixin",
  "compatibilityLevel": "JAVA_16",
  "plugin": "io.gitlab.jfronny.libjf.unsafe.MixinPlugin",
  "mixins": [
  ],
  "client": [
  ],
  "injectors": {
    "defaultRequire": 1
  }
}
